[api-updater (non-obsolete-error-filter)] 2022/01/04 9:21:36 : Starting C:/Program Files/Unity/Hub/Editor/2020.3.25f1/Editor/Data/Tools/ScriptUpdater/APIUpdater.NonObsoleteApiUpdaterDetector.exe
[api-updater (non-obsolete-error-filter)] 
----------------------------------
jit/startup time      : 575.1039ms
moved types parse time: 44ms
candidates parse time : 11ms
C# parse time         : 208ms
candidates check time : 30ms
console write time    : 0ms

[api-updater (non-obsolete-error-filter)] 2022/01/04 16:45:44 : Starting C:/Program Files/Unity/Hub/Editor/2020.3.25f1/Editor/Data/Tools/ScriptUpdater/APIUpdater.NonObsoleteApiUpdaterDetector.exe
[api-updater (non-obsolete-error-filter)] 
----------------------------------
jit/startup time      : 411.9764ms
moved types parse time: 42ms
candidates parse time : 9ms
C# parse time         : 193ms
candidates check time : 30ms
console write time    : 0ms

[api-updater (non-obsolete-error-filter)] 2022/01/06 22:35:56 : Starting C:/Program Files/Unity/Hub/Editor/2020.3.25f1/Editor/Data/Tools/ScriptUpdater/APIUpdater.NonObsoleteApiUpdaterDetector.exe
[api-updater (non-obsolete-error-filter)] 
----------------------------------
jit/startup time      : 485.9473ms
moved types parse time: 47ms
candidates parse time : 14ms
C# parse time         : 205ms
candidates check time : 32ms
console write time    : 0ms

[api-updater (non-obsolete-error-filter)] 2022/01/06 22:35:57 : Starting C:/Program Files/Unity/Hub/Editor/2020.3.25f1/Editor/Data/Tools/ScriptUpdater/APIUpdater.NonObsoleteApiUpdaterDetector.exe
[api-updater (non-obsolete-error-filter)] 
----------------------------------
jit/startup time      : 78.3159ms
moved types parse time: 50ms
candidates parse time : 11ms
C# parse time         : 140ms
candidates check time : 31ms
console write time    : 0ms

[api-updater (non-obsolete-error-filter)] 2022/01/08 13:29:08 : Starting C:/Program Files/Unity/Hub/Editor/2020.3.25f1/Editor/Data/Tools/ScriptUpdater/APIUpdater.NonObsoleteApiUpdaterDetector.exe
[api-updater (non-obsolete-error-filter)] 
----------------------------------
jit/startup time      : 1323.2998ms
moved types parse time: 202ms
candidates parse time : 11ms
C# parse time         : 376ms
candidates check time : 43ms
console write time    : 0ms

[api-updater (non-obsolete-error-filter)] 2022/01/09 21:54:13 : Starting C:/Program Files/Unity/Hub/Editor/2020.3.25f1/Editor/Data/Tools/ScriptUpdater/APIUpdater.NonObsoleteApiUpdaterDetector.exe
[api-updater (non-obsolete-error-filter)] 
----------------------------------
jit/startup time      : 406.2949ms
moved types parse time: 48ms
candidates parse time : 9ms
C# parse time         : 184ms
candidates check time : 28ms
console write time    : 0ms

[api-updater (non-obsolete-error-filter)] 2022/01/09 21:57:16 : Starting C:/Program Files/Unity/Hub/Editor/2020.3.25f1/Editor/Data/Tools/ScriptUpdater/APIUpdater.NonObsoleteApiUpdaterDetector.exe
[api-updater (non-obsolete-error-filter)] 
----------------------------------
jit/startup time      : 75.0172ms
moved types parse time: 49ms
candidates parse time : 9ms
C# parse time         : 125ms
candidates check time : 20ms
console write time    : 0ms

[api-updater (non-obsolete-error-filter)] 2022/01/09 22:37:27 : Starting C:/Program Files/Unity/Hub/Editor/2020.3.25f1/Editor/Data/Tools/ScriptUpdater/APIUpdater.NonObsoleteApiUpdaterDetector.exe
[api-updater (non-obsolete-error-filter)] 
----------------------------------
jit/startup time      : 82.7164ms
moved types parse time: 44ms
candidates parse time : 9ms
C# parse time         : 126ms
candidates check time : 19ms
console write time    : 0ms

[api-updater (non-obsolete-error-filter)] 2022/01/10 7:23:53 : Starting C:/Program Files/Unity/Hub/Editor/2020.3.25f1/Editor/Data/Tools/ScriptUpdater/APIUpdater.NonObsoleteApiUpdaterDetector.exe
[api-updater (non-obsolete-error-filter)] 
----------------------------------
jit/startup time      : 168.0381ms
moved types parse time: 44ms
candidates parse time : 10ms
C# parse time         : 111ms
candidates check time : 16ms
console write time    : 0ms

[api-updater (non-obsolete-error-filter)] 2022/01/10 23:28:16 : Starting C:/Program Files/Unity/Hub/Editor/2020.3.25f1/Editor/Data/Tools/ScriptUpdater/APIUpdater.NonObsoleteApiUpdaterDetector.exe
[api-updater (non-obsolete-error-filter)] 
----------------------------------
jit/startup time      : 103.3691ms
moved types parse time: 43ms
candidates parse time : 10ms
C# parse time         : 136ms
candidates check time : 22ms
console write time    : 0ms

[api-updater (non-obsolete-error-filter)] 2022/01/11 21:06:38 : Starting C:/Program Files/Unity/Hub/Editor/2020.3.25f1/Editor/Data/Tools/ScriptUpdater/APIUpdater.NonObsoleteApiUpdaterDetector.exe
[api-updater (non-obsolete-error-filter)] 
----------------------------------
jit/startup time      : 130.826ms
moved types parse time: 46ms
candidates parse time : 11ms
C# parse time         : 200ms
candidates check time : 28ms
console write time    : 0ms

[api-updater (non-obsolete-error-filter)] 2022/01/11 21:06:58 : Starting C:/Program Files/Unity/Hub/Editor/2020.3.25f1/Editor/Data/Tools/ScriptUpdater/APIUpdater.NonObsoleteApiUpdaterDetector.exe
[api-updater (non-obsolete-error-filter)] 
----------------------------------
jit/startup time      : 80.2528ms
moved types parse time: 41ms
candidates parse time : 12ms
C# parse time         : 145ms
candidates check time : 21ms
console write time    : 0ms

[api-updater (non-obsolete-error-filter)] 2022/01/24 22:31:34 : Starting D:/Unity/unity/2020.3.25f1/Editor/Data/Tools/ScriptUpdater/APIUpdater.NonObsoleteApiUpdaterDetector.exe
[api-updater (non-obsolete-error-filter)] 
----------------------------------
jit/startup time      : 1120.5763ms
moved types parse time: 89ms
candidates parse time : 17ms
C# parse time         : 585ms
candidates check time : 83ms
console write time    : 6ms

[api-updater (non-obsolete-error-filter)] 2022/01/26 0:35:07 : Starting D:/Unity/unity/2020.3.25f1/Editor/Data/Tools/ScriptUpdater/APIUpdater.NonObsoleteApiUpdaterDetector.exe
[api-updater (non-obsolete-error-filter)] 
----------------------------------
jit/startup time      : 1203.4334ms
moved types parse time: 89ms
candidates parse time : 18ms
C# parse time         : 632ms
candidates check time : 71ms
console write time    : 3ms

[api-updater (non-obsolete-error-filter)] 2022/01/28 23:13:23 : Starting D:/Unity/unity/2020.3.25f1/Editor/Data/Tools/ScriptUpdater/APIUpdater.NonObsoleteApiUpdaterDetector.exe
[api-updater (non-obsolete-error-filter)] 
----------------------------------
jit/startup time      : 1445.3814ms
moved types parse time: 130ms
candidates parse time : 22ms
C# parse time         : 602ms
candidates check time : 48ms
console write time    : 3ms

[api-updater (non-obsolete-error-filter)] 2022/01/28 23:13:30 : Starting D:/Unity/unity/2020.3.25f1/Editor/Data/Tools/ScriptUpdater/APIUpdater.NonObsoleteApiUpdaterDetector.exe
[api-updater (non-obsolete-error-filter)] 
----------------------------------
jit/startup time      : 187.487ms
moved types parse time: 80ms
candidates parse time : 1ms
C# parse time         : 159ms
candidates check time : 23ms
console write time    : 0ms

[api-updater (non-obsolete-error-filter)] 2022/01/30 21:07:20 : Starting D:/Unity/unity/2020.3.25f1/Editor/Data/Tools/ScriptUpdater/APIUpdater.NonObsoleteApiUpdaterDetector.exe
[api-updater (non-obsolete-error-filter)] 
----------------------------------
jit/startup time      : 855.1782ms
moved types parse time: 83ms
candidates parse time : 1ms
C# parse time         : 721ms
candidates check time : 68ms
console write time    : 7ms

[api-updater (non-obsolete-error-filter)] 2022/02/02 0:39:34 : Starting D:/Unity/unity/2020.3.25f1/Editor/Data/Tools/ScriptUpdater/APIUpdater.NonObsoleteApiUpdaterDetector.exe
[api-updater (non-obsolete-error-filter)] 
----------------------------------
jit/startup time      : 1243.8399ms
moved types parse time: 46ms
candidates parse time : 1ms
C# parse time         : 443ms
candidates check time : 39ms
console write time    : 0ms

[api-updater (non-obsolete-error-filter)] 2022/02/02 0:46:41 : Starting D:/Unity/unity/2020.3.25f1/Editor/Data/Tools/ScriptUpdater/APIUpdater.NonObsoleteApiUpdaterDetector.exe
[api-updater (non-obsolete-error-filter)] 
----------------------------------
jit/startup time      : 124.9697ms
moved types parse time: 45ms
candidates parse time : 0ms
C# parse time         : 159ms
candidates check time : 34ms
console write time    : 0ms

[api-updater (non-obsolete-error-filter)] 2022/02/02 0:47:21 : Starting D:/Unity/unity/2020.3.25f1/Editor/Data/Tools/ScriptUpdater/APIUpdater.NonObsoleteApiUpdaterDetector.exe
[api-updater (non-obsolete-error-filter)] 
----------------------------------
jit/startup time      : 124.9955ms
moved types parse time: 46ms
candidates parse time : 0ms
C# parse time         : 186ms
candidates check time : 35ms
console write time    : 0ms

[api-updater (non-obsolete-error-filter)] 2022/02/02 0:47:42 : Starting D:/Unity/unity/2020.3.25f1/Editor/Data/Tools/ScriptUpdater/APIUpdater.NonObsoleteApiUpdaterDetector.exe
[api-updater (non-obsolete-error-filter)] 
----------------------------------
jit/startup time      : 124.9715ms
moved types parse time: 47ms
candidates parse time : 1ms
C# parse time         : 209ms
candidates check time : 39ms
console write time    : 0ms

[api-updater (non-obsolete-error-filter)] 2022/02/02 21:56:57 : Starting D:/Unity/unity/2020.3.25f1/Editor/Data/Tools/ScriptUpdater/APIUpdater.NonObsoleteApiUpdaterDetector.exe
[api-updater (non-obsolete-error-filter)] 
----------------------------------
jit/startup time      : 1327.8335ms
moved types parse time: 276ms
candidates parse time : 139ms
C# parse time         : 605ms
candidates check time : 59ms
console write time    : 9ms

[api-updater (non-obsolete-error-filter)] 2022/02/02 21:56:58 : Starting D:/Unity/unity/2020.3.25f1/Editor/Data/Tools/ScriptUpdater/APIUpdater.NonObsoleteApiUpdaterDetector.exe
[api-updater (non-obsolete-error-filter)] 
----------------------------------
jit/startup time      : 124.9865ms
moved types parse time: 44ms
candidates parse time : 0ms
C# parse time         : 185ms
candidates check time : 46ms
console write time    : 0ms

[api-updater (non-obsolete-error-filter)] 2022/02/02 21:58:04 : Starting D:/Unity/unity/2020.3.25f1/Editor/Data/Tools/ScriptUpdater/APIUpdater.NonObsoleteApiUpdaterDetector.exe
[api-updater (non-obsolete-error-filter)] 
----------------------------------
jit/startup time      : 119.8275ms
moved types parse time: 50ms
candidates parse time : 0ms
C# parse time         : 143ms
candidates check time : 22ms
console write time    : 0ms

[api-updater (non-obsolete-error-filter)] 2022/02/02 21:58:04 : Starting D:/Unity/unity/2020.3.25f1/Editor/Data/Tools/ScriptUpdater/APIUpdater.NonObsoleteApiUpdaterDetector.exe
[api-updater (non-obsolete-error-filter)] 
----------------------------------
jit/startup time      : 120.0807ms
moved types parse time: 44ms
candidates parse time : 0ms
C# parse time         : 143ms
candidates check time : 22ms
console write time    : 0ms

[api-updater (non-obsolete-error-filter)] 2022/02/02 22:00:28 : Starting D:/Unity/unity/2020.3.25f1/Editor/Data/Tools/ScriptUpdater/APIUpdater.NonObsoleteApiUpdaterDetector.exe
[api-updater (non-obsolete-error-filter)] 
----------------------------------
jit/startup time      : 125.1588ms
moved types parse time: 49ms
candidates parse time : 0ms
C# parse time         : 145ms
candidates check time : 32ms
console write time    : 0ms

[api-updater (non-obsolete-error-filter)] 2022/02/02 22:00:28 : Starting D:/Unity/unity/2020.3.25f1/Editor/Data/Tools/ScriptUpdater/APIUpdater.NonObsoleteApiUpdaterDetector.exe
[api-updater (non-obsolete-error-filter)] 
----------------------------------
jit/startup time      : 120.2534ms
moved types parse time: 44ms
candidates parse time : 0ms
C# parse time         : 145ms
candidates check time : 23ms
console write time    : 0ms

[api-updater (non-obsolete-error-filter)] 2022/02/02 22:26:37 : Starting D:/Unity/unity/2020.3.25f1/Editor/Data/Tools/ScriptUpdater/APIUpdater.NonObsoleteApiUpdaterDetector.exe
[api-updater (non-obsolete-error-filter)] 
----------------------------------
jit/startup time      : 265.5869ms
moved types parse time: 45ms
candidates parse time : 0ms
C# parse time         : 142ms
candidates check time : 22ms
console write time    : 0ms

[api-updater (non-obsolete-error-filter)] 2022/02/02 22:26:37 : Starting D:/Unity/unity/2020.3.25f1/Editor/Data/Tools/ScriptUpdater/APIUpdater.NonObsoleteApiUpdaterDetector.exe
[api-updater (non-obsolete-error-filter)] 
----------------------------------
jit/startup time      : 124.967ms
moved types parse time: 45ms
candidates parse time : 0ms
C# parse time         : 146ms
candidates check time : 21ms
console write time    : 0ms

