%YAML 1.1
%TAG !u! tag:unity3d.com,2011:
--- !u!114 &11400000
MonoBehaviour:
  m_ObjectHideFlags: 0
  m_CorrespondingSourceObject: {fileID: 0}
  m_PrefabInstance: {fileID: 0}
  m_PrefabAsset: {fileID: 0}
  m_GameObject: {fileID: 0}
  m_Enabled: 1
  m_EditorHideFlags: 0
  m_Script: {fileID: 11500000, guid: 52698f0e05e509847b4f4cde11243802, type: 3}
  m_Name: Shift
  m_EditorClassIdentifier: 
  icon: {fileID: 21300000, guid: abcec2c8e55ba24489b660f310af1d75, type: 3}
  KeyName: Shift
  information: "\u8D70\u308A\u653B\u6483\uFF08\uFF13\u79D2\u3054\u3068\uFF09"
